…
Now show the total number of trees planted each year

``` r
(count_by_time(vancouver_trees, "date_planted", "year"))
```

    ## Warning: Use of .data in tidyselect expressions was deprecated in tidyselect 1.2.0.
    ## ℹ Please use `all_of(var)` (or `any_of(var)`) instead of `.data[[var]]`

    ## # A tibble: 31 × 2
    ## # Groups:   time [31]
    ##    time  count
    ##    <chr> <int>
    ##  1 1989    300
    ##  2 1990   1145
    ##  3 1991    579
    ##  4 1992   1759
    ##  5 1993   2128
    ##  6 1994   1879
    ##  7 1995   2912
    ##  8 1996   3079
    ##  9 1997   2778
    ## 10 1998   3581
    ## # … with 21 more rows
…
Show the total number of trees planted each day across all months

``` r
(count_by_time(vancouver_trees, "date_planted", "day"))
```

    ## # A tibble: 31 × 2
    ## # Groups:   time [31]
    ##    time  count
    ##    <chr> <int>
    ##  1 01     2259
    ##  2 02     2446
    ##  3 03     2551
    ##  4 04     2438
    ##  5 05     2482
    ##  6 06     2425
    ##  7 07     2284
    ##  8 08     2493
    ##  9 09     2250
    ## 10 10     2407
    ## # … with 21 more rows
…
