…
## Example

This is a basic example that shows you how to count the number of tree
planted in different years/months/days based on vancouver_trees dataset.

``` r
library(datateachr)
library(dplyr)
library(tidyr)
library(lubridate)
#> Warning: package 'lubridate' was built under R version 4.2.2
#> Warning: package 'timechange' was built under R version 4.2.2
library(count.by.time)
(count_by_time(datateachr::vancouver_trees, "date_planted", "year"))
#> # A tibble: 31 × 2
#> # Groups:   time [31]
#>    time  count
#>    <chr> <int>
#>  1 1989    300
#>  2 1990   1145
#>  3 1991    579
#>  4 1992   1759
#>  5 1993   2128
#>  6 1994   1879
#>  7 1995   2912
#>  8 1996   3079
#>  9 1997   2778
#> 10 1998   3581
#> # … with 21 more rows
…
#>    <chr> <int>
#>  1 Apr    6815
#>  2 Aug      87
#>  3 Dec    8502
#>  4 Feb   12988
#>  5 Jan   12138
#>  6 Jul     170
#>  7 Jun     516
#>  8 Mar   12299
#>  9 May    1549
#> 10 Nov   12184
#> 11 Oct    2688
#> 12 Sep     127
(count_by_time(datateachr::vancouver_trees, "date_planted", "day"))
#> # A tibble: 31 × 2
#> # Groups:   time [31]
#>    time  count
#>    <chr> <int>
#>  1 01     2259
#>  2 02     2446
#>  3 03     2551
#>  4 04     2438
#>  5 05     2482
#>  6 06     2425
#>  7 07     2284
#>  8 08     2493
#>  9 09     2250
#> 10 10     2407
#> # … with 21 more rows
```
